<?xml version="1.0" standalone="no"?>
<!DOCTYPE svg PUBLIC "-//W3C//DTD SVG 1.1//EN" "http://www.w3.org/Graphics/SVG/1.1/DTD/svg11.dtd" >
<svg xmlns="http://www.w3.org/2000/svg">
<metadata>
<json>
<![CDATA[
{
	"fontFamily": "fontello",
	"description": "Font generated by IcoMoon.",
	"version": "Version 1.0",
	"majorVersion": 0,
	"fontId": "fontello",
	"psName": "fontello",
	"subFamily": "Regular",
	"fullName": "fontello"
}
]]>
</json>
</metadata>
<defs>
<font id="fontello" horiz-adv-x="1024">
<font-face units-per-em="1024" ascent="960" descent="-64" />
<missing-glyph horiz-adv-x="1024" />
<glyph unicode="&#x20;" horiz-adv-x="512" d="" />
<glyph unicode="&#xe900;" glyph-name="booking" data-tags="booking" d="M735.003 768.11h76.968c8.294 0 15.014 6.682 15.014 14.929s-6.719 14.929-15.014 14.929h-76.968c-8.294 0-15.014-6.682-15.014-14.929s6.719-14.929 15.014-14.929zM950.755 797.969h-74.798c-8.292 0-15.014-6.683-15.014-14.929s6.722-14.929 15.014-14.929h74.798c23.308 0 42.272-18.857 42.272-42.035v-527.97h-807.397c-8.293 0-15.014-6.683-15.014-14.928 0-8.248 6.72-14.931 15.014-14.931h807.4v-16.084c0-23.177-18.966-42.035-42.272-42.035h-877.505c-23.309 0-42.272 18.859-42.272 42.035v16.084h90.668c8.293 0 15.014 6.683 15.014 14.931 0 8.246-6.72 14.928-15.014 14.928h-90.668v527.968c0 23.18 18.965 42.035 42.272 42.035h215.75c8.294 0 15.014 6.682 15.014 14.929s-6.719 14.929-15.014 14.929h-215.75c-39.866 0-72.299-32.252-72.299-71.894v-573.912c0-39.641 32.433-71.892 72.299-71.892h248.582v-58.29l-37.781-50.376h-18.13c-8.292 0-15.014-6.683-15.014-14.931 0-8.246 6.722-14.928 15.014-14.928h496.35c8.292 0 15.014 6.683 15.014 14.928 0 8.248-6.722 14.931-15.014 14.931h-20.312l-37.781 50.376v58.29h246.579c39.865 0 72.299 32.251 72.299 71.892v573.912c-0.005 39.642-32.439 71.896-72.304 71.896zM677.13 8.099l27.372-36.496h-382.996l27.372 36.496c1.936 2.58 2.979 5.708 2.979 8.923v63.244h322.289v-63.244c0.002-3.216 1.046-6.344 2.982-8.923zM512.007 606.079c98.128 0 177.959 79.384 177.959 176.961s-79.833 176.961-177.959 176.961c-98.128 0-177.959-79.384-177.959-176.959-0.002-97.578 79.831-176.963 177.959-176.963zM512.007 930.141c81.569 0 147.931-65.988 147.931-147.1s-66.363-147.103-147.931-147.103c-81.571 0-147.931 65.992-147.931 147.103s66.36 147.1 147.931 147.1zM482.004 709.005c2.867-2.592 6.483-3.881 10.096-3.881 3.764 0 7.526 1.402 10.433 4.189l106.759 102.502c5.964 5.727 6.132 15.178 0.373 21.11-5.761 5.93-15.262 6.097-21.231 0.37l-96.639-92.787-30.086 27.199c-6.132 5.542-15.631 5.1-21.209-1.005-5.578-6.099-5.127-15.545 1.009-21.090l40.494-36.607zM234.885 513.892h422.381c8.294 0 15.014 6.683 15.014 14.928 0 8.248-6.719 14.928-15.014 14.928h-422.381c-21.562 0-39.099-17.442-39.099-38.88v-88.22c0-21.441 17.54-38.88 39.099-38.88h246.668c8.294 0 15.014 6.683 15.014 14.928 0 8.248-6.719 14.928-15.014 14.928h-246.668c-5.002 0-9.072 4.047-9.072 9.023v88.22c0 4.974 4.070 9.023 9.072 9.023zM721.252 513.892h67.864c5.001 0 9.072-4.047 9.072-9.023v-88.22c0-4.976-4.072-9.023-9.072-9.023h-57.368c-8.292 0-15.011-6.68-15.011-14.928 0-8.246 6.719-14.928 15.011-14.928h57.368c21.56 0 39.097 17.442 39.097 38.88v88.22c0 21.441-17.54 38.88-39.097 38.88h-67.864c-8.294 0-15.014-6.68-15.014-14.928 0-8.246 6.719-14.928 15.014-14.928zM689.113 377.346c-1.365 9.177-7.736 16.63-16.625 19.446l-113.169 35.85c-7.185 2.28-14.872 1.141-21.082-3.104-6.217-4.247-10.033-10.976-10.474-18.461l-6.922-117.904c-0.544-9.26 4.164-17.847 12.29-22.401 8.129-4.557 17.949-4.123 25.639 1.126l22.404 15.306 27.519-39.824c3.591-5.196 9.001-8.692 15.238-9.84 1.46-0.271 2.923-0.402 4.379-0.402 4.754 0 9.392 1.424 13.392 4.157l36.159 24.703c10.784 7.373 13.529 22.096 6.12 32.822l-27.521 39.829 22.401 15.304c7.687 5.254 11.618 14.219 10.252 23.394zM629.877 269.444l-32.461 46.975c-2.255 3.265-5.72 5.505-9.635 6.224-0.909 0.171-1.824 0.251-2.738 0.251-3.013 0-5.983-0.902-8.502-2.623l-25.037-17.108 5.798 98.779 94.81-30.032-25.037-17.108c-3.282-2.243-5.534-5.688-6.259-9.582-0.727-3.891 0.132-7.914 2.384-11.176l32.466-46.98-25.79-17.62z" />
<glyph unicode="&#xe901;" glyph-name="click" data-tags="click" d="M930.865 233.989l-469.341 381.85c-6.4 5.176-15.231 6.278-22.655 2.716-7.465-3.523-12.203-10.988-12.203-19.178v-636.418c0-9.335 6.144-17.608 15.145-20.324 2.048-0.595 4.14-0.892 6.188-0.892 6.997 0 13.736 3.438 17.749 9.462l164.354 245.107h287.237c9.045 0 17.064 5.642 20.095 14.129 3.072 8.446 0.427 17.864-6.571 23.55zM618.667 238.741c-7.124 0-13.783-3.564-17.749-9.418l-131.586-196.272v521.565l388.23-315.877-238.894 0.002zM578.175 935.958c-186.712 71.364-396.89-21.553-468.699-207.132-71.767-185.62 21.674-394.665 208.301-466.072 2.519-0.931 5.12-1.399 7.68-1.399 8.575 0 16.64 5.176 19.927 13.619 4.223 10.906-1.28 23.208-12.247 27.409-164.694 62.961-247.169 247.44-183.808 411.212 63.361 163.77 248.791 245.784 413.528 182.737 164.698-62.964 247.13-247.439 183.81-411.211-4.223-10.906 1.28-23.208 12.247-27.409 11.008-4.159 23.296 1.231 27.563 12.178 71.768 185.622-21.675 394.662-208.301 466.069zM662.445 694.077c-25.432 56.981-71.682 100.681-130.177 123.041-58.539 22.402-122.285 20.789-179.546-4.54-57.303-25.288-101.249-71.279-123.735-129.448s-20.864-121.556 4.566-178.537c25.431-56.981 71.682-100.681 130.177-123.041 2.519-0.934 5.12-1.402 7.68-1.402 8.577 0 16.642 5.179 19.883 13.619 4.225 10.906-1.28 23.208-12.247 27.409-47.872 18.286-85.719 54.053-106.537 100.64-20.78 46.626-22.145 98.475-3.713 146.078 18.432 47.606 54.36 85.239 101.249 105.901 46.848 20.662 98.987 22.020 146.905 3.691 47.872-18.287 85.719-54.054 106.54-100.64 20.777-46.629 22.143-98.475 3.711-146.081-4.223-10.903 1.239-23.206 12.247-27.407 10.967-4.159 23.296 1.273 27.563 12.178 22.53 58.168 20.909 121.598-4.564 178.537z" />
<glyph unicode="&#xe902;" glyph-name="Group" data-tags="Group" d="M1016.091 55.077l-14.607 14.529c-5.859 5.827-15.355 5.825-21.211 0.002-5.861-5.827-5.861-15.27-0.002-21.094l12.485-12.417-63.637-63.281-108.188 107.579 63.639 63.281 50.471-50.188c5.861-5.822 15.358-5.822 21.214 0 5.859 5.827 5.859 15.27 0 21.094l-61.050 60.709c-0.012 0.010-0.020 0.020-0.027 0.029l-42.425 42.189c-0.012 0.012-0.024 0.020-0.037 0.032l-37.442 37.232c-5.1 5.071-11.881 7.868-19.095 7.868s-13.995-2.796-19.090-7.865l-2.124-2.111-53.675 53.387c38.366 47.662 66.072 104.146 79.521 165.861h105.689c8.287 0 15.002 6.676 15.002 14.914 0 8.241-6.715 14.916-15.002 14.916h-100.372c1.321 9.487 2.311 19.078 2.953 28.76h168.919c8.285 0 14.999 6.678 14.999 14.916 0 8.241-6.715 14.916-14.999 14.916h-168.034c-0.071 9.652-0.473 19.241-1.209 28.762h97.746c8.287 0 15.002 6.676 15.002 14.916 0 8.238-6.715 14.914-15.002 14.914h-101.171c-10.481 68.571-38.507 132.714-82.608 188.118-5.142 6.458-14.575 7.547-21.072 2.438-6.495-5.113-7.592-14.494-2.453-20.954 52.86-66.403 80.801-146.37 80.801-231.254 0-205.617-168.224-372.897-375.001-372.897-206.775 0-374.999 167.28-374.999 372.897 0 205.615 168.224 372.895 374.999 372.895 93.477 0 183.023-34.402 252.138-96.867 6.129-5.545 15.621-5.091 21.189 1.004 5.571 6.096 5.12 15.53-1.012 21.071-74.65 67.467-171.359 104.624-272.316 104.624-223.317 0-404.999-180.663-404.999-402.727 0-196.059 141.628-359.814 328.487-395.488v-100.63c0-8.241 6.712-14.916 14.999-14.916 8.285 0 14.999 6.676 14.999 14.916v96.061c9.548-1.090 19.19-1.855 28.926-2.27v-163.935c0-8.241 6.712-14.916 14.999-14.916s14.999 6.676 14.999 14.916v163.74c9.728 0.293 19.378 0.909 28.926 1.875v-95.471c0-8.241 6.712-14.916 14.999-14.916s14.999 6.676 14.999 14.916v99.645c67.728 12.017 129.66 40.845 181.309 81.954l53.687-53.375-2.119-2.109c-5.103-5.071-7.912-11.813-7.912-18.985s2.809-13.917 7.907-18.985l37.456-37.244c0.007-0.007 0.015-0.015 0.022-0.024l42.425-42.186c0.010-0.010 0.022-0.017 0.029-0.027l120.886-120.205c5.1-5.076 11.881-7.868 19.095-7.868 7.212 0 13.99 2.792 19.093 7.863l67.879 67.501c5.1 5.071 7.909 11.813 7.909 18.985s-2.809 13.917-7.909 18.983zM701.642 283.402l52.107-51.829-21.211-21.092-52.119 51.814c7.331 6.773 14.412 13.812 21.224 21.107zM799.717 101.486l-21.214 21.094 63.639 63.281 21.211-21.094-63.637-63.281zM796.182 231.568l24.749-24.61-63.639-63.281-24.749 24.61 63.639 63.281zM196.107 284.219c60.078-44.905 132.25-69.118 208.887-70.020 190.235 0 345 153.897 345 343.064s-154.765 343.064-345 343.064c-91.804 0-178.155-35.732-243.137-100.614-64.708-64.606-100.882-150.653-101.862-242.291-0.9-84.363 29.926-165.449 86.798-228.323 5.54-6.122 15.024-6.624 21.184-1.114 6.16 5.508 6.662 14.941 1.122 21.065-51.832 57.3-79.926 131.189-79.104 208.055 0.894 83.812 33.964 162.496 93.118 221.555 59.312 59.222 138.111 91.836 221.881 91.836 173.692 0 315.002-140.515 315.002-313.232s-141.31-313.234-314.824-313.237c-70.037 0.829-136.097 22.974-191.041 64.039-6.618 4.952-16.026 3.623-21.002-2.962-4.98-6.585-3.646-15.935 2.978-20.885zM578.002 554.467h-70.617l-32.080 81.547c-2.267 5.761-7.824 9.489-14.102 9.482-6.224-0.056-11.769-3.928-13.931-9.73l-43.839-117.555-30.642 86.36c-1.96 5.527-6.995 9.401-12.871 9.899-5.868 0.505-11.496-2.475-14.373-7.59l-29.423-52.409h-70.434c-8.285 0-14.999-6.676-14.999-14.916 0-8.238 6.714-14.916 14.999-14.916h79.238c5.435 0 10.447 2.926 13.097 7.646l17.525 31.212 33.382-94.089c2.102-5.925 7.709-9.901 14.026-9.952h0.122c6.266 0 11.881 3.877 14.063 9.73l44.566 119.501 21.465-54.567c2.25-5.717 7.792-9.484 13.968-9.484h80.859c8.287 0 15.002 6.678 15.002 14.916 0 8.241-6.715 14.916-15.002 14.916z" />
<glyph unicode="&#xe903;" glyph-name="Palette" data-tags="Palette" d="M996.708 552.057c-2.843 13.439-8.809 26.034-17.419 36.772-8.612 10.739-19.628 19.324-32.175 25.075-12.544 5.748-26.266 8.499-40.071 8.033-13.802-0.466-27.306-4.136-39.429-10.717-206.465-111.559-271.678-113.157-290.070-94.884s-16.734 83.154 95.418 288.446c6.618 12.055 10.307 25.483 10.776 39.209s-2.299 27.372-8.079 39.845c-5.78 12.474-14.417 23.43-25.215 31.993-10.801 8.563-23.463 14.496-36.977 17.324-67.891 14.139-138.008 13.938-205.813-0.589-67.808-14.528-131.786-43.058-187.797-83.743s-102.799-92.616-137.338-152.43c-34.538-59.815-56.055-126.176-63.155-194.786s0.373-137.938 21.937-203.493c21.564-65.558 56.736-125.877 103.239-177.050 46.503-51.176 103.299-92.066 166.707-120.021 63.41-27.955 132.018-42.353 201.38-42.259 12.935 0 25.905 0.496 38.904 1.493 70.085 5.581 138.167 25.937 199.726 59.715 61.556 33.776 115.176 80.201 157.289 136.184 42.113 55.98 71.758 120.239 86.959 188.5 15.201 68.258 15.611 138.954 1.202 207.384zM969.75 407.644c-11.647-120.045-70.516-230.656-163.789-307.747-93.273-77.088-213.396-114.413-334.215-103.85-120.819 10.566-232.545 68.166-310.856 160.261s-116.862 211.224-107.26 331.45c9.269 106.868 55.762 207.164 131.457 283.584s175.841 124.168 283.156 135.004c14.576 1.352 29.141 2.028 43.692 2.028 31.687 0.010 63.291-3.218 94.313-9.633 8.117-1.71 15.721-5.284 22.199-10.437 6.481-5.153 11.657-11.741 15.12-19.239s5.112-15.697 4.818-23.942c-0.294-8.245-2.522-16.308-6.508-23.543-73.329-134.243-141.307-278.433-89.339-330.108 51.965-51.677 196.964 15.918 331.965 88.835 7.278 3.964 15.384 6.182 23.676 6.473 8.292 0.294 16.538-1.347 24.077-4.791 7.54-3.441 14.166-8.591 19.348-15.034 5.182-6.446 8.774-14.005 10.493-22.075 9.41-45.11 11.989-91.365 7.65-137.235zM299.776 451.142c0 17.392-5.185 34.396-14.902 48.856-9.715 14.463-23.525 25.732-39.682 32.388s-33.935 8.399-51.087 5.004c-17.152-3.393-32.907-11.768-45.273-24.067s-20.787-27.966-24.199-45.026c-3.412-17.058-1.661-34.738 5.032-50.807s18.026-29.804 32.566-39.467c14.541-9.663 31.636-14.821 49.124-14.821 23.442 0.030 45.916 9.302 62.492 25.789s25.902 38.837 25.929 62.151zM158.303 451.142c0 10.434 3.112 20.636 8.941 29.313s14.115 15.441 23.809 19.434c9.694 3.994 20.361 5.036 30.652 3.002 10.291-2.037 19.744-7.063 27.164-14.441s12.472-16.78 14.519-27.015c2.047-10.235 0.997-20.844-3.019-30.486s-10.815-17.882-19.54-23.679c-8.724-5.799-18.982-8.893-29.474-8.893-14.066 0.013-27.552 5.578-37.499 15.47-9.947 9.89-15.542 23.304-15.558 37.292h0.004zM236.882 301.932c-12.365-12.299-20.786-27.969-24.197-45.026s-1.66-34.738 5.033-50.807c6.693-16.069 18.026-29.801 32.566-39.464s31.636-14.821 49.122-14.821c17.489 0 34.584 5.158 49.125 14.821s25.872 23.396 32.566 39.464c6.694 16.069 8.445 33.749 5.034 50.807s-11.833 32.728-24.196 45.026c-16.602 16.457-39.087 25.697-62.529 25.697-23.439 0-45.923-9.24-62.525-25.697zM336.926 202.431c-7.419-7.37-16.866-12.385-27.152-14.414-10.283-2.032-20.941-0.984-30.628 3.010-9.685 3.994-17.963 10.755-23.787 19.426s-8.932 18.866-8.932 29.292c0 10.429 3.108 20.623 8.932 29.294s14.102 15.43 23.787 19.424c9.688 3.994 20.345 5.042 30.628 3.013 10.286-2.029 19.734-7.047 27.152-14.414 9.925-9.911 15.495-23.328 15.495-37.317 0-13.986-5.57-27.403-15.495-37.314zM511.987 240.128c-20.464 0.005-40.297-7.047-56.121-19.955-15.821-12.908-26.654-30.871-30.65-50.831s-0.911-40.682 8.734-58.632c9.644-17.952 25.247-32.022 44.153-39.812 18.904-7.79 39.941-8.823 59.524-2.916s36.503 18.383 47.872 35.304c11.372 16.923 16.489 37.241 14.484 57.495s-11.011 39.192-25.481 53.582c-8.187 8.195-17.931 14.692-28.661 19.114s-22.24 6.683-33.854 6.651zM549.492 114.879c-10.108-9.591-23.541-14.942-37.511-14.942s-27.403 5.352-37.511 14.942c-7.421 7.381-12.474 16.78-14.522 27.017-2.048 10.235-0.997 20.844 3.018 30.486s10.814 17.882 19.54 23.681c8.726 5.796 18.982 8.893 29.475 8.893s20.752-3.096 29.475-8.893c8.726-5.799 15.524-14.040 19.54-23.681s5.066-20.251 3.018-30.486c-2.048-10.237-7.101-19.637-14.522-27.017zM724.566 327.696c-17.489 0-34.584-5.158-49.125-14.821s-25.872-23.396-32.566-39.464c-6.691-16.069-8.443-33.752-5.031-50.809s11.833-32.728 24.199-45.026c12.366-12.299 28.12-20.674 45.272-24.067s34.932-1.652 51.090 5.004c16.155 6.656 29.965 17.928 39.68 32.388 9.717 14.463 14.902 31.464 14.902 48.856-0.027 23.315-9.353 45.665-25.929 62.151s-39.049 25.759-62.491 25.789zM724.566 186.993c-10.493 0-20.749 3.096-29.475 8.893-8.726 5.799-15.524 14.040-19.54 23.679-4.015 9.642-5.066 20.251-3.018 30.486 2.045 10.235 7.098 19.637 14.519 27.017 7.419 7.378 16.872 12.404 27.163 14.438 10.291 2.037 20.957 0.992 30.653-3.002 9.693-3.994 17.979-10.757 23.808-19.432 5.831-8.677 8.941-18.879 8.941-29.316-0.013-13.988-5.608-27.403-15.554-37.295s-23.431-15.457-37.497-15.473v0.005zM236.882 724.719c-12.365-12.299-20.786-27.968-24.197-45.026s-1.66-34.741 5.033-50.809c6.693-16.066 18.026-29.801 32.566-39.462 14.541-9.663 31.636-14.821 49.122-14.821 17.489 0 34.584 5.158 49.125 14.821 14.541 9.661 25.872 23.396 32.566 39.462 6.694 16.069 8.445 33.752 5.034 50.809s-11.833 32.727-24.196 45.026c-16.602 16.457-39.087 25.698-62.529 25.698-23.439 0-45.923-9.241-62.525-25.698zM336.926 625.219c-7.419-7.37-16.866-12.388-27.152-14.417-10.286-2.032-20.943-0.984-30.631 3.010-9.685 3.994-17.964 10.755-23.788 19.426s-8.933 18.866-8.933 29.294c0 10.429 3.109 20.623 8.933 29.294s14.103 15.432 23.788 19.425c9.688 3.994 20.345 5.042 30.631 3.012s19.734-7.047 27.152-14.416c9.938-9.904 15.519-23.324 15.519-37.315s-5.581-27.411-15.519-37.314z" />
<glyph unicode="&#xe904;" glyph-name="Vector" data-tags="Vector" horiz-adv-x="829" d="M792.764-58.256c-7.012 0-13.585 4.332-16.074 11.279-24.271 67.701-89.168 113.186-161.487 113.186-42.889 0-81.808 21.726-104.099 58.122-4.905 8.004-2.353 18.447 5.695 23.323 8.051 4.876 18.551 2.338 23.454-5.666 16.045-26.2 44.066-41.84 74.949-41.838 86.716 0.002 164.535-54.543 193.638-135.731 3.957-11.037-4.291-22.674-16.077-22.674zM84.057 283.441l-0.239 411.204c-0.002 146.321 119.703 265.355 266.841 265.355h125.513c147.139 0 266.842-119.034 266.842-265.348l-0.083-140.654c32.631-5.074 57.683-33.212 57.683-67.065v-80.613c0-36.884-29.993-67.881-68.471-67.881-8.275-55.145-56.208-97.585-113.93-97.585h-171.732c-9.426 0-17.067 7.6-17.067 16.972s7.641 16.972 17.067 16.972h171.732c38.846 0 71.385 27.314 79.243 63.642-61.835 0-58.631-0.358-62.405 0.939-8.572 2.845-13.49 11.895-11.028 20.646 10.428 37.066 8.058 43.52 8.058 240.501-44.685 15.762-83.054 46.319-108.161 88.235-29.477-43.247-71.656-78.875-125.401-101.015-12.997-5.354-26.609 6.417-23.045 19.973 3.043 11.574 3.443 23.284 1.475 34.636-41.843-46.499-95.039-68.293-142.719-68.293-9.248 0-16.845 7.348-17.056 16.589-0.211 9.37 7.256 17.135 16.679 17.347 56.673 1.27 102.921 32.49 134.521 78.414 7.139 10.377 22.769 9.682 28.96-1.26 9.316-16.469 14.312-34.628 14.899-53.187 40.977 22.677 75.252 56.727 97.958 100.062 6.778 12.934 25.641 11.839 30.998-1.58 33.204-83.187 110.694-100.047 115.315-102.251 4.067-1.933 7.141-5.344 8.66-9.489 1.402-3.808 1.048-0.073 1.048-63.888h42.586l0.080 139.844c0.002 127.592-104.389 231.398-232.706 231.398h-125.513c-128.315 0-232.71-103.807-232.71-231.406l0.239-411.204c0-16.679 16.862-29.759 35.025-22.082 8.67 3.664 18.694-0.354 22.383-8.982 3.686-8.624-0.356-18.588-9.033-22.257-40.646-17.179-82.506 12.312-82.506 53.314zM732.348 520.877c-24.681 0 19.653 0-66.133 0 0-110 1.214-118.947-4.328-148.495h70.461c18.82 0 34.133 15.226 34.133 33.941v80.613c0 18.715-15.311 33.941-34.133 33.941zM475.833 75.72c-61.901-29.947-124.962-13.241-167.39 35.335 15.982 19.541 25.3 43.33 26.829 68.606 24.62-7.977 50.881-12.308 78.143-12.308 9.423 0 17.067 7.597 17.067 16.969s-7.643 16.972-17.067 16.972c-117.463 0-218.666 95.139-218.666 217.439v118.399c0 9.372-7.642 16.972-17.067 16.972s-17.067-7.6-17.067-16.972v-118.399c0-98.631 57.427-184.159 140.769-225.302v-6.366c0-48.077-39.178-86.918-87.622-86.916-86.621 0.005-164.507-54.465-193.64-135.736-3.972-11.079 4.337-22.679 16.077-22.672 7.014 0 13.587 4.33 16.077 11.276 24.269 67.706 89.165 113.191 161.486 113.191 25.088 0 49.202 7.509 69.641 21.711 52.102-59.153 131.269-79.533 207.362-42.72 8.477 4.101 12.005 14.258 7.88 22.686-4.118 8.426-14.334 11.934-22.813 7.834z" />
<glyph unicode="&#xe906;" glyph-name="left" data-tags="left" horiz-adv-x="1138" d="M453.393 904.835l-426.667-426.667c-16.672-16.672-16.672-43.67 0-60.331l426.667-426.667c16.672-16.674 43.669-16.674 60.331 0s16.672 43.668 0 60.331l-353.835 353.835h921c23.563 0 42.667 19.104 42.667 42.667s-19.103 42.667-42.667 42.667h-921l353.835 353.835c8.33 8.331 12.501 19.253 12.501 30.165s-4.171 21.835-12.501 30.165c-16.662 16.672-43.67 16.672-60.331 0z" />
<glyph unicode="&#xe907;" glyph-name="play" data-tags="play" horiz-adv-x="943" d="M880.265 549.462l-698.778 377.052c-16.863 9.142-35.811 13.926-54.711 13.926-63.616 0-115.342-51.774-115.342-115.39v-754.153c0-63.617 51.726-115.391 115.342-115.391 18.9 0 37.847 4.786 54.711 13.926l698.778 377.053c37.373 20.132 60.583 59.023 60.583 101.465 0 42.488-23.21 81.378-60.583 101.511zM834.223 431.845l-698.778-377.053c-9.995-5.306-27-1.42-27 16.106v754.153c0 12.553 10.942 18.379 18.331 18.379 2.984 0 5.779-0.758 8.668-2.274l698.778-377.052c8.383-4.549 9.615-12.032 9.615-16.152 0-4.074-1.231-11.558-9.615-16.106z" />
<glyph unicode="&#xe908;" glyph-name="right" data-tags="right" horiz-adv-x="1138" d="M684.385-8.835l426.667 426.667c16.674 16.672 16.674 43.67 0 60.331l-426.667 426.667c-16.674 16.672-43.668 16.672-60.331 0s-16.674-43.669 0-60.331l353.838-353.835h-921.005c-23.563 0-42.667-19.104-42.667-42.667s19.104-42.667 42.667-42.667h921.005l-353.838-353.835c-8.329-8.329-12.498-19.251-12.498-30.162 0-10.917 4.17-21.84 12.498-30.168 16.663-16.674 43.668-16.674 60.331 0z" />
<glyph unicode="&#xe909;" glyph-name="v" data-tags="v" horiz-adv-x="1280" d="M1074.554 869.127l-638.917-638.919-221.747 221.747c-37.49 37.489-98.111 37.489-135.601 0s-37.49-98.111 0-135.603l289.547-289.549c18.346-18.342 42.276-27.917 67.8-27.917s49.455 10.368 67.8 27.917l705.92 705.925c37.491 37.489 37.491 98.111 0 135.601-36.691 37.49-97.312 37.49-134.803 0.798z" />
<glyph unicode="&#xe910;" glyph-name="dot_v" data-tags="dot_v" d="M627.881 560.3l-170.378-170.378-59.133 59.133c-9.996 9.998-26.163 9.998-36.159 0-9.998-9.998-9.998-26.163 0-36.161l77.211-77.213c4.893-4.891 11.274-7.444 18.080-7.444s13.187 2.765 18.080 7.444l188.245 188.247c9.998 9.998 9.998 26.163 0 36.159-9.784 9.998-25.95 9.998-35.948 0.213zM89.306 265.052c-5.53 12.974-20.633 18.93-33.608 13.401-12.975-5.531-18.931-20.634-13.401-33.608 4.254-9.573 13.613-15.529 23.398-15.529 3.403 0 6.807 0.638 10.21 2.128 12.975 5.743 18.931 20.632 13.401 33.608zM61.23 353.971c-2.765 13.826-16.379 22.758-30.204 19.78-13.826-2.976-22.76-16.166-19.782-29.991 2.552-12.124 13.188-20.419 24.887-20.419 1.702 0 3.403 0.212 5.105 0.638 14.039 2.765 22.76 16.377 19.994 29.991zM255.433 835.746c4.68 0 9.359 1.276 13.614 3.829 11.911 7.445 15.527 23.185 8.083 35.097-7.446 11.912-23.185 15.528-35.098 8.083-11.911-7.445-15.527-23.185-8.083-35.097 4.68-7.657 12.976-11.912 21.484-11.912zM177.582 775.344c6.381 0 12.549 2.34 17.654 7.020 10.211 9.784 10.636 25.95 0.852 36.16s-25.951 10.635-36.161 0.851c-10.21-9.785-10.635-25.95-0.851-36.161 4.892-5.105 11.698-7.869 18.506-7.869zM26.133 421.391c14.039 0 25.525 11.486 25.525 25.525 0 0.212 0 0.212 0 0.425s0 0.425 0 0.638c0 14.039-11.486 25.525-25.525 25.525s-25.525-11.486-25.525-25.525c0-0.213 0-0.425 0-0.638s0-0.425 0-0.638c0-14.039 11.486-25.312 25.525-25.312zM159.714 111.915c-9.784-10.209-9.359-26.377 1.064-36.161 4.892-4.68 11.273-7.020 17.654-7.020 6.808 0 13.614 2.767 18.505 8.083 9.786 10.211 9.359 26.377-1.063 36.161-10.209 9.573-26.375 9.146-36.16-1.063zM30.813 520.953c1.702-0.425 3.403-0.638 5.105-0.638 11.912 0 22.547 8.296 24.887 20.42 2.765 13.826-6.168 27.226-19.994 30.205-13.826 2.765-27.226-6.168-30.204-19.995-2.34-13.612 6.594-27.013 20.207-29.991zM953.537 586.675c3.403-10.848 13.401-17.867 24.248-17.867 2.553 0 5.106 0.427 7.658 1.277 13.401 4.255 20.845 18.505 16.592 31.906-4.255 13.401-18.507 20.845-31.906 16.591-13.189-4.253-20.847-18.505-16.592-31.906zM536.417 908.924c0.425 0 0.85 0 1.277 0 13.612 0 24.887 10.635 25.525 24.248 0.638 14.039-10.211 26.163-24.248 26.801-14.039 0.638-25.952-10.21-26.801-24.249-0.638-14.039 10.209-25.95 24.248-26.801zM628.733 895.1c2.127-0.638 4.255-0.851 6.381-0.851 11.274 0 21.697 7.657 24.673 19.144 3.616 13.613-4.678 27.652-18.292 31.055-13.614 3.616-27.651-4.68-31.056-18.293-3.615-13.613 4.68-27.652 18.294-31.055zM995.229 523.279c-14.039-1.488-24.248-13.826-22.76-27.865 1.277-13.187 12.337-22.972 25.312-22.972 0.852 0 1.702 0 2.553 0.213 14.039 1.488 24.248 14.037 22.76 28.076-1.277 13.614-13.826 23.823-27.865 22.547zM269.896 55.764c-11.911 7.444-27.651 3.828-35.096-8.296-7.446-11.911-3.83-27.651 8.294-35.096 4.255-2.553 8.934-3.83 13.401-3.83 8.508 0 16.804 4.255 21.697 12.124 7.231 11.913 3.616 27.653-8.296 35.098zM439.212 904.033c1.277 0 2.553 0 3.828 0.213 13.827 2.127 23.398 15.102 21.272 29.141-2.128 14.039-15.102 23.398-29.141 21.271s-23.61-15.102-21.484-29.141c2.34-12.55 13.187-21.484 25.525-21.484zM55.486 616.67c3.191-1.49 6.594-2.128 9.997-2.128 9.784 0 19.356 5.743 23.398 15.527 5.53 12.976-0.425 27.865-13.401 33.608-12.975 5.531-28.077-0.425-33.608-13.399-5.53-13.189 0.638-28.078 13.613-33.608zM98.664 705.147c4.467-2.978 9.572-4.468 14.677-4.468 8.083 0 15.953 3.83 21.058 10.849 8.083 11.486 5.318 27.438-6.381 35.521-11.486 8.084-27.439 5.318-35.522-6.381-8.083-11.486-5.318-27.438 6.169-35.521zM99.306 189.754c-11.486-8.083-14.251-24.035-6.168-35.521 4.892-7.020 12.975-10.849 20.845-10.849 5.105 0 10.21 1.49 14.677 4.68 11.486 8.083 14.464 24.037 6.168 35.523-8.083 11.486-24.036 14.251-35.522 6.168zM939.071 659.209c4.255 0 8.508 1.063 12.337 3.19 12.336 6.808 16.804 22.335 9.784 34.673-6.806 12.336-22.335 16.804-34.671 9.784-12.337-6.808-16.804-22.335-9.784-34.671 4.678-8.083 13.399-12.976 22.333-12.976zM899.936 150.62c-10.636 9.146-26.801 7.871-35.948-2.765s-7.871-26.801 2.765-35.948c4.893-4.041 10.636-6.168 16.592-6.168 7.231 0 14.464 2.978 19.355 8.933 9.148 10.636 7.871 26.801-2.765 35.948zM882.49 740.040c5.955 0 11.911 2.127 16.591 6.168 10.636 9.146 11.911 25.312 2.765 35.948s-25.312 11.912-35.946 2.765c-10.636-9.146-11.913-25.312-2.767-35.948 5.105-5.955 12.337-8.933 19.357-8.933zM1000.332 424.593c-14.039 1.275-26.588-8.934-27.865-22.973-1.49-14.039 8.933-26.588 22.972-27.865 0.852 0 1.702-0.212 2.553-0.212 12.974 0 24.035 9.784 25.312 22.972 1.49 14.251-8.933 26.801-22.972 28.078zM343.919 879.352c2.978 0 5.955 0.425 8.933 1.702 13.189 4.892 19.995 19.569 15.102 32.757-4.891 13.188-19.569 19.994-32.756 15.102-13.189-4.892-19.995-19.569-15.102-32.757 3.616-10.423 13.401-16.804 23.823-16.804zM951.834 234.429c-12.337 6.806-27.865 2.34-34.671-9.998-6.808-12.336-2.34-27.865 9.996-34.671 3.83-2.127 8.083-3.19 12.337-3.19 8.934 0 17.655 4.68 22.333 13.187 6.808 12.337 2.34 27.865-9.996 34.671zM985.868 326.958c-13.401 4.255-27.653-3.19-31.908-16.804-4.253-13.401 3.403-27.651 16.804-31.906 2.553-0.85 5.106-1.063 7.658-1.063 10.849 0 21.059 7.020 24.462 17.867 4.041 13.614-3.616 27.865-17.015 31.906zM796.344 83.405c-11.061-8.721-13.187-24.673-4.466-35.734 5.105-6.595 12.549-9.784 20.207-9.784 5.53 0 11.061 1.702 15.741 5.316 11.061 8.721 13.187 24.675 4.466 35.736-8.934 11.061-24.887 12.974-35.948 4.466zM537.481-12.952c-14.039-0.85-24.888-12.762-24.25-26.801 0.638-13.612 11.913-24.248 25.525-24.248 0.427 0 0.852 0 1.277 0 14.039 0.638 24.887 12.762 24.25 26.801s-12.764 24.887-26.801 24.248zM444.104-8.487c-13.826 2.127-27.015-7.444-28.928-21.484-2.128-13.826 7.444-27.013 21.484-28.928 1.275-0.213 2.551-0.213 3.828-0.213 12.337 0 23.398 9.148 25.1 21.697 2.127 13.826-7.658 26.801-21.484 28.928zM353.702 14.701c-13.187 4.891-27.865-1.915-32.756-15.102-4.893-13.187 1.915-27.865 15.102-32.758 2.978-1.063 5.956-1.488 8.721-1.488 10.423 0 20.207 6.381 24.035 16.804 4.893 12.976-1.913 27.651-15.102 32.544zM629.583 1.299c-13.614-3.616-21.908-17.442-18.292-31.056 2.976-11.486 13.399-19.144 24.673-19.144 2.127 0 4.255 0.213 6.381 0.852 13.614 3.616 21.908 17.442 18.294 31.055-3.405 13.614-17.231 21.697-31.056 18.294zM717.218 33.843c-12.762-6.168-17.867-21.484-11.699-34.246 4.466-8.934 13.401-14.251 22.973-14.251 3.828 0 7.656 0.85 11.273 2.551 12.762 6.17 17.867 21.484 11.699 34.246-6.381 12.762-21.697 17.867-34.246 11.699zM716.157 862.553c3.615-1.702 7.444-2.552 11.273-2.552 9.359 0 18.505 5.318 22.973 14.251 6.168 12.762 1.063 27.865-11.699 34.246-12.762 6.168-27.865 1.063-34.246-11.699-6.17-12.55-0.852-27.865 11.699-34.246zM795.494 813.208c4.68-3.616 10.209-5.318 15.527-5.318 7.658 0 15.102 3.403 20.207 9.997 8.721 11.061 6.595 27.227-4.466 35.735-11.061 8.721-27.226 6.594-35.736-4.467-8.719-11.274-6.593-27.227 4.468-35.948z" />
<glyph unicode="&#xe911;" glyph-name="back-top" data-tags="back-top" d="M649.050 482.65l-128 128c-5.002 5.001-13.1 5.001-18.099 0l-128-128c-5.002-5.002-5.002-13.102 0-18.099 5.002-4.999 13.1-5.002 18.099 0l106.15 106.15v-276.301c0-7.069 5.733-12.8 12.8-12.8 7.069 0 12.8 5.731 12.8 12.8v276.301l106.151-106.15c2.499-2.5 5.775-3.751 9.049-3.751s6.552 1.251 9.050 3.751c5.002 4.997 5.002 13.1 0 18.099z" />
<glyph unicode="&#xe912;" glyph-name="evanto" data-tags="evanto" horiz-adv-x="939" d="M204.594 648.862c-1.91 23.453-15.186 41.274-34.662 46.524-19.35 5.242-39.468-3.141-52.54-21.93-111.483-160.244-108.837-302.875-86.959-394.352 46.364-194.001 223.139-343.104 434.599-343.104 316.809 0 479.654 289.574 452.954 634.776-12.13 156.789-68.693 343.954-164.258 379.946-63.817 23.914-166.135 0.734-260.851-59.359-75.508-47.86-248.603-189.711-287.343-482.151-19.233 56.363-12.681 145.393-4.141 204.041 2.435 16.765 3.898 26.906 3.202 35.609z" />
<glyph unicode="&#xd1001;" glyph-name="phone-receiver-silhouette" data-tags="phone-receiver-silhouette" d="M882.298 247.296c-61.86 52.908-124.638 84.957-185.739 32.129l-36.484-31.929c-26.694-23.177-76.325-131.472-268.218 89.273-191.853 220.465-77.684 254.791-50.95 277.769l36.684 31.969c60.781 52.948 37.843 119.603-5.994 188.216l-26.454 41.559c-44.037 68.453-91.99 113.409-152.931 60.541l-32.928-28.772c-26.934-19.621-102.22-83.399-120.482-204.56-21.979-145.378 47.354-311.855 206.199-494.517 158.645-182.742 313.973-274.532 461.11-272.933 122.281 1.319 196.128 66.935 219.226 90.791l33.048 28.812c60.781 52.828 23.018 106.616-38.882 159.644l-37.204 32.009z" />
<glyph unicode="&#xd1002;" glyph-name="cancel" data-tags="cancel" d="M874.261 810.121c-199.654 199.654-524.619 199.654-724.273 0-96.713-96.751-149.987-225.358-149.987-362.136s53.275-265.385 149.987-362.098c99.847-99.847 230.992-149.749 362.136-149.749s262.291 49.902 362.136 149.749c199.654 199.654 199.654 524.541 0.002 724.233zM818.168 141.98c-168.752-168.752-443.338-168.752-612.090 0-81.717 81.717-126.741 190.41-126.741 306.005s45.024 224.288 126.741 306.045c168.752 168.752 443.338 168.712 612.090 0 168.712-168.752 168.712-443.338 0-612.050zM683.057 338.34l-112.303 112.143 112.303 112.143c15.47 15.47 15.47 40.58 0.040 56.093-15.51 15.55-40.62 15.51-56.131 0.040l-112.381-112.223-112.381 112.223c-15.51 15.47-40.62 15.51-56.131-0.040-15.47-15.51-15.47-40.62 0.040-56.093l112.303-112.143-112.303-112.143c-15.51-15.47-15.51-40.58-0.040-56.093 7.736-7.774 17.93-11.622 28.086-11.622s20.31 3.888 28.046 11.584l112.381 112.223 112.381-112.223c7.736-7.736 17.89-11.584 28.046-11.584s20.35 3.888 28.086 11.622c15.466 15.512 15.466 40.622-0.044 56.093z" />
<glyph unicode="&#xd1003;" glyph-name="user" data-tags="user" d="M504.702 466.735c67.765 0 126.437 24.305 174.39 72.258 47.937 47.945 72.25 106.609 72.25 174.382 0 67.75-24.305 126.422-72.258 174.382-47.953 47.937-106.625 72.242-174.382 72.242-67.773 0-126.437-24.305-174.382-72.25s-72.258-106.617-72.258-174.375c0-67.773 24.312-126.445 72.258-174.39 47.961-47.937 106.633-72.25 174.382-72.25zM372.757 845.321c36.789 36.789 79.945 54.672 131.945 54.672 51.992 0 95.156-17.883 131.953-54.672 36.789-36.797 54.68-79.961 54.68-131.945 0-52-17.891-95.156-54.68-131.953-36.797-36.797-79.961-54.68-131.953-54.68-51.984 0-95.14 17.891-131.945 54.68-36.797 36.789-54.687 79.953-54.687 131.953 0 51.984 17.891 95.148 54.687 131.945zM936.256 172.595c-1.383 19.953-4.18 41.719-8.297 64.703-4.156 23.156-9.508 45.047-15.914 65.055-6.625 20.68-15.617 41.101-26.75 60.672-11.539 20.312-25.102 38-40.32 52.555-15.914 15.227-35.398 27.469-57.93 36.398-22.453 8.883-47.336 13.383-73.953 13.383-10.453 0-20.562-4.289-40.086-17-12.016-7.836-26.070-16.898-41.758-26.922-13.414-8.547-31.586-16.555-54.031-23.805-21.898-7.086-44.133-10.68-66.086-10.68-21.937 0-44.172 3.594-66.086 10.68-22.422 7.242-40.601 15.25-53.992 23.797-15.539 9.93-29.602 18.992-41.797 26.937-19.508 12.711-29.617 17-40.070 17-26.625 0-51.5-4.508-73.945-13.398-22.516-8.914-42.008-21.156-57.937-36.398-15.219-14.562-28.781-32.242-40.312-52.547-11.117-19.57-20.117-39.984-26.742-60.68-6.398-20.008-11.75-41.891-15.906-65.047-4.125-22.953-6.914-44.726-8.297-64.726-1.359-19.555-2.047-39.906-2.047-60.469 0-53.453 16.992-96.726 50.5-128.64 33.094-31.492 76.875-47.461 130.133-47.461h493.062c53.242 0 97.023 15.969 130.125 47.461 33.516 31.891 50.508 75.18 50.508 128.648-0.008 20.633-0.703 40.984-2.070 60.484zM846.444 26.939c-21.867-20.812-50.898-30.93-88.758-30.93h-493.054c-37.867 0-66.898 10.117-88.758 30.922-21.445 20.414-31.867 48.281-31.867 85.172 0 19.187 0.633 38.133 1.898 56.32 1.234 17.844 3.758 37.445 7.5 58.273 3.695 20.57 8.398 39.875 13.992 57.351 5.367 16.758 12.687 33.351 21.766 49.336 8.664 15.234 18.633 28.305 29.633 38.836 10.289 9.852 23.258 17.914 38.539 23.961 14.133 5.594 30.016 8.656 47.258 9.117 2.102-1.117 5.844-3.25 11.906-7.203 12.336-8.039 26.555-17.211 42.273-27.25 17.719-11.297 40.547-21.5 67.82-30.305 27.883-9.016 56.32-13.594 84.547-13.594s56.672 4.578 84.539 13.586c27.297 8.82 50.117 19.016 67.859 30.328 16.086 10.281 29.906 19.187 42.242 27.234 6.062 3.945 9.805 6.086 11.906 7.203 17.25-0.461 33.133-3.523 47.273-9.117 15.273-6.047 28.242-14.117 38.531-23.961 11-10.523 20.969-23.594 29.633-38.844 9.086-15.977 16.414-32.578 21.773-49.32 5.602-17.5 10.312-36.797 14-57.351 3.734-20.867 6.266-40.476 7.5-58.289v-0.016c1.273-18.117 1.914-37.055 1.922-56.297-0.008-36.898-10.43-64.758-31.875-85.164z" />
<glyph unicode="&#xd1004;" glyph-name="menu" data-tags="menu" d="M128 704v-32h768v64h-768v-32zM128 448v-32h768v64h-768v-32zM128 192v-32h768v64h-768v-32z" />
</font></defs></svg>